Refund_Machine/Sim/questa/msim_transcript
# Reading pref.tcl
# //  Questa Intel Starter FPGA Edition-64
# //  Version 2023.3 win64 Jul 17 2023
# //
# //  Copyright 1991-2023 Mentor Graphics Corporation
# //  All Rights Reserved.
# //
# //  QuestaSim and its associated documentation contain trade
# //  secrets and commercial or financial information that are the property of
# //  Mentor Graphics Corporation and are privileged, confidential,
# //  and exempt from disclosure under the Freedom of Information Act,
# //  5 U.S.C. Section 552. Furthermore, this information
# //  is prohibited from disclosure under the Trade Secrets Act,
# //  18 U.S.C. Section 1905.
# //
# do refund_machine_run_msim_rtl_verilog.do
# if {[file exists rtl_work]} {
# 	vdel -lib rtl_work -all
# }
# vlib rtl_work
# vmap work rtl_work
# Questa Intel Starter FPGA Edition-64 vmap 2023.3 Lib Mapping Utility 2023.07 Jul 17 2023
# vmap work rtl_work 
# Copying C:/intelFPGA_lite/23.1std/questa_fse/win64/../modelsim.ini to modelsim.ini
# Modifying modelsim.ini
# 
# vlog -vlog01compat -work work +incdir+C:/FPGA_Laboratory/Lab3/Refund_Machine/RTL {C:/FPGA_Laboratory/Lab3/Refund_Machine/RTL/refund_machine.v}
# Questa Intel Starter FPGA Edition-64 vlog 2023.3 Compiler 2023.07 Jul 17 2023
# Start time: 22:24:32 on Nov 10,2024
# vlog -reportprogress 300 -vlog01compat -work work "+incdir+C:/FPGA_Laboratory/Lab3/Refund_Machine/RTL" C:/FPGA_Laboratory/Lab3/Refund_Machine/RTL/refund_machine.v 
# -- Compiling module refund_machine
# 
# Top level modules:
# 	refund_machine
# End time: 22:24:32 on Nov 10,2024, Elapsed time: 0:00:00
# Errors: 0, Warnings: 0
# 
# vlog -vlog01compat -work work +incdir+C:/FPGA_Laboratory/Lab3/Refund_Machine/Quartus_prj/../Sim {C:/FPGA_Laboratory/Lab3/Refund_Machine/Quartus_prj/../Sim/tb_refund_machine.v}
# Questa Intel Starter FPGA Edition-64 vlog 2023.3 Compiler 2023.07 Jul 17 2023
# Start time: 22:24:32 on Nov 10,2024
# vlog -reportprogress 300 -vlog01compat -work work "+incdir+C:/FPGA_Laboratory/Lab3/Refund_Machine/Quartus_prj/../Sim" C:/FPGA_Laboratory/Lab3/Refund_Machine/Quartus_prj/../Sim/tb_refund_machine.v 
# -- Compiling module tb_refund_machine
# 
# Top level modules:
# 	tb_refund_machine
# End time: 22:24:32 on Nov 10,2024, Elapsed time: 0:00:00
# Errors: 0, Warnings: 0
# 
# vsim -t 1ps -L altera_ver -L lpm_ver -L sgate_ver -L altera_mf_ver -L altera_lnsim_ver -L cycloneive_ver -L rtl_work -L work -voptargs="+acc"  tb_refund_machine
# vsim -t 1ps -L altera_ver -L lpm_ver -L sgate_ver -L altera_mf_ver -L altera_lnsim_ver -L cycloneive_ver -L rtl_work -L work -voptargs=""+acc"" tb_refund_machine 
# Start time: 22:24:33 on Nov 10,2024
# ** Note: (vsim-3812) Design is being optimized...
# ** Warning: (vopt-10587) Some optimizations are turned off because the +acc switch is in effect. This will cause your simulation to run slowly. Please use -access/-debug to maintain needed visibility.
# ** Note: (vopt-143) Recognized 1 FSM in module "refund_machine(fast)".
# ** Note: (vsim-12126) Error and warning message counts have been restored: Errors=0, Warnings=1.
# Loading work.tb_refund_machine(fast)
# Loading work.refund_machine(fast)
# 
# add wave *
# view structure
# .main_pane.structure.interior.cs.body.struct
# view signals
# .main_pane.objects.interior.cs.body.tree
# run 1 us
# @time    0ns: pi_money_one=0 pi_money_half=0 pi_money=00 state=0001 po_beverage=0 po_money_one=0 po_money_half=0
# @time   40ns: pi_money_one=0 pi_money_half=1 pi_money=01 state=0001 po_beverage=0 po_money_one=0 po_money_half=0
# @time   60ns: pi_money_one=1 pi_money_half=0 pi_money=10 state=0010 po_beverage=0 po_money_one=0 po_money_half=0
# @time   80ns: pi_money_one=1 pi_money_half=0 pi_money=10 state=1000 po_beverage=0 po_money_one=0 po_money_half=0
# @time   85ns: pi_money_one=0 pi_money_half=0 pi_money=00 state=0001 po_beverage=0 po_money_one=1 po_money_half=1
# @time  100ns: pi_money_one=0 pi_money_half=1 pi_money=01 state=0001 po_beverage=0 po_money_one=0 po_money_half=0
# @time  120ns: pi_money_one=1 pi_money_half=0 pi_money=10 state=0010 po_beverage=0 po_money_one=0 po_money_half=0
# @time  140ns: pi_money_one=1 pi_money_half=0 pi_money=10 state=1000 po_beverage=0 po_money_one=0 po_money_half=0
# @time  160ns: pi_money_one=1 pi_money_half=0 pi_money=10 state=0001 po_beverage=1 po_money_one=0 po_money_half=1
# @time  180ns: pi_money_one=0 pi_money_half=1 pi_money=01 state=0100 po_beverage=0 po_money_one=0 po_money_half=0
# @time  200ns: pi_money_one=1 pi_money_half=0 pi_money=10 state=1000 po_beverage=0 po_money_one=0 po_money_half=0
# @time  220ns: pi_money_one=1 pi_money_half=0 pi_money=10 state=0001 po_beverage=1 po_money_one=0 po_money_half=1
# @time  240ns: pi_money_one=0 pi_money_half=1 pi_money=01 state=0100 po_beverage=0 po_money_one=0 po_money_half=0
# @time  243ns: pi_money_one=0 pi_money_half=0 pi_money=00 state=0001 po_beverage=0 po_money_one=1 po_money_half=0
# @time  260ns: pi_money_one=0 pi_money_half=1 pi_money=01 state=0001 po_beverage=0 po_money_one=0 po_money_half=0
# @time  280ns: pi_money_one=1 pi_money_half=0 pi_money=10 state=0010 po_beverage=0 po_money_one=0 po_money_half=0
# @time  300ns: pi_money_one=0 pi_money_half=1 pi_money=01 state=1000 po_beverage=0 po_money_one=0 po_money_half=0
# @time  320ns: pi_money_one=1 pi_money_half=0 pi_money=10 state=0001 po_beverage=1 po_money_one=0 po_money_half=0
# @time  340ns: pi_money_one=0 pi_money_half=1 pi_money=01 state=0100 po_beverage=0 po_money_one=0 po_money_half=0
# @time  360ns: pi_money_one=1 pi_money_half=0 pi_money=10 state=1000 po_beverage=0 po_money_one=0 po_money_half=0
# @time  380ns: pi_money_one=0 pi_money_half=1 pi_money=01 state=0001 po_beverage=1 po_money_one=0 po_money_half=1
# @time  400ns: pi_money_one=1 pi_money_half=0 pi_money=10 state=0010 po_beverage=0 po_money_one=0 po_money_half=0
# @time  420ns: pi_money_one=1 pi_money_half=0 pi_money=10 state=1000 po_beverage=0 po_money_one=0 po_money_half=0
# @time  440ns: pi_money_one=0 pi_money_half=1 pi_money=01 state=0001 po_beverage=1 po_money_one=0 po_money_half=1
# @time  460ns: pi_money_one=1 pi_money_half=0 pi_money=10 state=0010 po_beverage=0 po_money_one=0 po_money_half=0
# @time  480ns: pi_money_one=0 pi_money_half=1 pi_money=01 state=1000 po_beverage=0 po_money_one=0 po_money_half=0
# @time  500ns: pi_money_one=0 pi_money_half=1 pi_money=01 state=0001 po_beverage=1 po_money_one=0 po_money_half=0
# @time  520ns: pi_money_one=0 pi_money_half=1 pi_money=01 state=0010 po_beverage=0 po_money_one=0 po_money_half=0
# @time  540ns: pi_money_one=1 pi_money_half=0 pi_money=10 state=0100 po_beverage=0 po_money_one=0 po_money_half=0
# @time  560ns: pi_money_one=0 pi_money_half=1 pi_money=01 state=0001 po_beverage=1 po_money_one=0 po_money_half=0
# @time  580ns: pi_money_one=1 pi_money_half=0 pi_money=10 state=0010 po_beverage=0 po_money_one=0 po_money_half=0
# @time  600ns: pi_money_one=1 pi_money_half=0 pi_money=10 state=1000 po_beverage=0 po_money_one=0 po_money_half=0
# @time  620ns: pi_money_one=1 pi_money_half=0 pi_money=10 state=0001 po_beverage=1 po_money_one=0 po_money_half=1
# @time  640ns: pi_money_one=1 pi_money_half=0 pi_money=10 state=0100 po_beverage=0 po_money_one=0 po_money_half=0
# @time  660ns: pi_money_one=0 pi_money_half=1 pi_money=01 state=0001 po_beverage=1 po_money_one=0 po_money_half=0
# @time  680ns: pi_money_one=0 pi_money_half=1 pi_money=01 state=0010 po_beverage=0 po_money_one=0 po_money_half=0
# @time  700ns: pi_money_one=0 pi_money_half=1 pi_money=01 state=0100 po_beverage=0 po_money_one=0 po_money_half=0
# @time  720ns: pi_money_one=0 pi_money_half=1 pi_money=01 state=1000 po_beverage=0 po_money_one=0 po_money_half=0
# @time  740ns: pi_money_one=1 pi_money_half=0 pi_money=10 state=0001 po_beverage=1 po_money_one=0 po_money_half=0
# @time  760ns: pi_money_one=0 pi_money_half=1 pi_money=01 state=0100 po_beverage=0 po_money_one=0 po_money_half=0
# @time  780ns: pi_money_one=1 pi_money_half=0 pi_money=10 state=1000 po_beverage=0 po_money_one=0 po_money_half=0
# @time  800ns: pi_money_one=1 pi_money_half=0 pi_money=10 state=0001 po_beverage=1 po_money_one=0 po_money_half=1
# @time  820ns: pi_money_one=1 pi_money_half=0 pi_money=10 state=0100 po_beverage=0 po_money_one=0 po_money_half=0
# @time  840ns: pi_money_one=1 pi_money_half=0 pi_money=10 state=0001 po_beverage=1 po_money_one=0 po_money_half=0
# @time  860ns: pi_money_one=1 pi_money_half=0 pi_money=10 state=0100 po_beverage=0 po_money_one=0 po_money_half=0
# @time  880ns: pi_money_one=0 pi_money_half=1 pi_money=01 state=0001 po_beverage=1 po_money_one=0 po_money_half=0
# @time  900ns: pi_money_one=0 pi_money_half=1 pi_money=01 state=0010 po_beverage=0 po_money_one=0 po_money_half=0
# @time  920ns: pi_money_one=1 pi_money_half=0 pi_money=10 state=0100 po_beverage=0 po_money_one=0 po_money_half=0
# @time  940ns: pi_money_one=1 pi_money_half=0 pi_money=10 state=0001 po_beverage=1 po_money_one=0 po_money_half=0
# @time  960ns: pi_money_one=1 pi_money_half=0 pi_money=10 state=0100 po_beverage=0 po_money_one=0 po_money_half=0
# @time  980ns: pi_money_one=0 pi_money_half=1 pi_money=01 state=0001 po_beverage=1 po_money_one=0 po_money_half=0
# Causality operation skipped due to absence of debug database file
# End time: 00:00:37 on Nov 11,2024, Elapsed time: 1:36:04
# Errors: 0, Warnings: 1
